{
    "count": 10,
    "next": "https://swapi.co/api/people/?page=2", 
    "previous": null, 
    "results": [
        {
            "name": "Get on your deathbed",
            "data": "Get on your deathbed",
            "readTime": "4",
            "speechTime": "6",
            "characters": "4030",
            "words": "764",
        },
        {
            "name": "Stay hungry",
            "data": "Get on your deathbed",
            "readTime": "4",
            "speechTime": "6",
            "characters": "4030",
            "words": "764",
        },
        {
            "name": "Tell yourself a true lie",
            "data": "Get on your deathbed",
            "readTime": "4",
            "speechTime": "6",
            "characters": "4030",
            "words": "764",
        },
        {
            "name": "Keep your eyes on the prize",
            "data": "Get on your deathbed",
            "readTime": "4",
            "speechTime": "6",
            "characters": "4030",
            "words": "764",
        },
        {
            "name": "Learn to sweat in peace",
            "data": "Get on your deathbed",
            "readTime": "4",
            "speechTime": "6",
            "characters": "4030",
            "words": "764",
        },
        {
            "name": "Simplify your life",
            "data": "Get on your deathbed",
            "readTime": "4",
            "speechTime": "6",
            "characters": "4030",
            "words": "764",
        },
        {
            "name": "Look for the lost gold",
            "data": "Get on your deathbed",
            "readTime": "4",
            "speechTime": "6",
            "characters": "4030",
            "words": "764",
        },
        {
            "name": "Push all your own buttons",
            "data": "Get on your deathbed",
            "readTime": "4",
            "speechTime": "6",
            "characters": "4030",
            "words": "764",
        },
        {
            "name": "Build a track record",
            "data": "Get on your deathbed",
            "readTime": "4",
            "speechTime": "6",
            "characters": "4030",
            "words": "764",
        },
        {
            "name": "Welcome the unexpected",
            "data": "Get on your deathbed",
            "readTime": "4",
            "speechTime": "6",
            "characters": "4030",
            "words": "764",
        },
    ]
}